phase;code;libelle;convention_apl;non_convention_apl;codif_dom;codif
A partir de 1977 (1983 dans les DOM);10; PLA d'intégration (LLTS dans les DOM);PLAI;PLAI;LLTS;PLAI
A partir de 1977 (1983 dans les DOM);11; PLA Loyer Minoré / PLA Très Social / PLA Insertion;PLAI;PLAI;LLTS;PLAI
A partir de 1977 (1983 dans les DOM);12; PLA ordinaire;PLUS ap. 77;PLUS ap. 77;LLS;PLUS
A partir de 1977 (1983 dans les DOM);13; PLUS (LLS dans les DOM);PLUS ap. 77;PLUS ap. 77;LLS;PLUS
A partir de 1977 (1983 dans les DOM);14; PLS/PPLS/PCLS/PLA CFF;PLS;PLS;PLS;PLS
A partir de 1977 (1983 dans les DOM);15; PAP locatif;PLS;PLS;PLS;PLS
A partir de 1977 (1983 dans les DOM);16; PLI;;PLI;PLS;PLS
A partir de 1977 (1983 dans les DOM);17; PCL (conventionné ou non);PLS;PLI;PLS;PLS
A partir de 1977 (1983 dans les DOM);49; Autre financement ;PLUS ap. 77;PLI;PLS;PLS
Avant 1977 (1983 dans les DOM);50; HBM;PLUS av. 77;PLUS av. 77;LLS;PLUS
Avant 1977 (1983 dans les DOM);51; PLR/PSR;PLUS av. 77;PLUS av. 77;LLS;PLUS
Avant 1977 (1983 dans les DOM);52; HLM/O;PLUS av. 77;PLUS av. 77;LLS;PLUS
Avant 1977 (1983 dans les DOM);53; ILM;PLUS av. 77;PLUS av. 77;LLS;PLUS
Avant 1977 (1983 dans les DOM);54; ILN;PLUS av. 77;PLI;PLS;PLI
Avant 1977 (1983 dans les DOM);55; Prêts spéciaux du CFF;PLUS av. 77;PLI;PLS;PLI
Avant 1977 (1983 dans les DOM);99; Autre financement ;PLUS av. 77;PLI;PLS;PLI
